tlm_adc_sin_example/bin/tr.vcd
$date
    Sat Aug 20 19:51:03 2016
$end

$version
    2.0.beta1
$end

$timescale
      10 ns
$end

$scope module SystemC_AMS $end

$var real 1 !  sig_sin_out $end
$var wire 16 "  sig_adc_out $end
$var real 1 #  freq_val_de $end

$upscope $end

$enddefinitions $end


#0
r0.000000000000000 !
b0 "
r0.000000000000000 #

#5
r111111.1000000000 #

#10
r0.000000000000000 !
b0 "

#20
r0.1395129335596289 !
b100011101110 "

#30
r0.2783461742666297 !
b1000111010000 "

#40
r0.4158233406629677 !
b1101010011101 "

#50
r0.5512746579470172 !
b10001101001000 "

#60
r0.6840402210484164 !
b10101111000111 "

#70
r0.8134732096185946 !
b11010000010000 "

#80
r0.9389430392738620 !
b11110000011000 "

#90
r1.059838433738527 !
b100001111010100 "

#100
r1.175570402920870 !
b100101100111101 "

#110
r1.285575112413094 !
b101001001000111 "

#120
r1.389316630435329 !
b101100011101011 "

#130
r1.486289538840874 !
b101111100011111 "

#140
r1.576021395462112 !
b110010011011110 "

#150
r1.658075035800794 !
b110101000011110 "

#160
r1.732050702849113 !
b110111011011010 "

#170
r1.797587994665269 !
b111001100001100 "

#180
r1.854367620215151 !
b111011010101110 "

#190
r1.902112954925851 !
b111100110111100 "

#200
r1.940591388372505 !
b111110000110011 "

#210
r1.969615457532678 !
b111111000001110 "

#220
r1.989043760087179 !
b111111101001100 "

#230
r1.998781643317812 !
b111111111101100 "

#240
r1.998781665245810 !
b111111111101100 "

#250
r1.989043825764343 !
b111111101001100 "

#260
r1.969615566639035 !
b111111000001110 "

#270
r1.940591540376500 !
b111110000110011 "

#280
r1.902113149086935 !
b111100110111100 "

#290
r1.854367855587392 !
b111011010101110 "

#300
r1.797588270101957 !
b111001100001100 "

#310
r1.732051017008349 !
b110111011011010 "

#320
r1.658075387152026 !
b110101000011110 "

#330
r1.576021782293592 !
b110010011011110 "

#340
r1.486289959268000 !
b101111100011111 "

#350
r1.389317082409821 !
b101100011101011 "

#360
r1.285575593732978 !
b101001001000111 "

#370
r1.175570911241206 !
b100101100111101 "

#380
r1.059838966582829 !
b100001111010100 "

#390
r0.9389435940461665 !
b11110000011000 "

#400
r0.8134737836161074 !
b11010000010000 "

#410
r0.6840408114746801 !
b10101111000111 "

#420
r0.5512752619255349 !
b10001101001000 "

#430
r0.4158239552512173 !
b1101010011101 "

#440
r0.2783467964703996 !
b1000111010000 "

#450
r0.1395135603476056 !
b100011101110 "

#460
r6.283185361117865e-07 !
b0 "

#470
r-0.1395123067716375 !
b1111011100010010 "

#480
r-0.2783455520628306 !
b1110111000110000 "

#490
r-0.4158227260746747 !
b1110010101100011 "

#500
r-0.5512740539684420 !
b1101110010111000 "

#510
r-0.6840396306220813 !
b1101010000111001 "

#520
r-0.8134726356209968 !
b1100101111110000 "

#530
r-0.9389424845014596 !
b1100001111101000 "

#540
r-1.059837900894115 !
b1011110000101100 "

#550
r-1.175569894600413 !
b1011010011000011 "

#560
r-1.285574631093076 !
b1010110110111001 "

#570
r-1.389316178460693 !
b1010011100010101 "

#580
r-1.486289118413595 !
b1010000011100001 "

#590
r-1.576021008630468 !
b1001101100100010 "

#600
r-1.658074684449392 !
b1001010111100010 "

#610
r-1.732050388689700 !
b1001000100100110 "

#620
r-1.797587719228398 !
b1000110011110100 "

#630
r-1.854367384842722 !
b1000100101010010 "

#640
r-1.902112760764575 !
b1000011001000100 "

#650
r-1.940591236368316 !
b1000001111001101 "

#660
r-1.969615348426125 !
b1000000111110010 "

#670
r-1.989043694409818 !
b1000000010110100 "

#680
r-1.998781621389616 !
b1000000000010100 "

#690
r-1.998781687173612 !
b1000000000010100 "

#700
r-1.989043891441311 !
b1000000010110100 "

#710
r-1.969615675745198 !
b1000000111110010 "

#720
r-1.940591692380305 !
b1000001111001101 "

#730
r-1.902113343247834 !
b1000011001000100 "

#740
r-1.854368090959453 !
b1000100101010010 "

#750
r-1.797588545538471 !
b1000110011110100 "

#760
r-1.732051331167417 !
b1001000100100110 "

#770
r-1.658075738503096 !
b1001010111100010 "

#780
r-1.576022169124918 !
b1001101100100010 "

#790
r-1.486290379694978 !
b1010000011100001 "

#800
r-1.389317534384174 !
b1010011100010101 "

#810
r-1.285576075052734 !
b1010110110111001 "

#820
r-1.175571419561422 !
b1011010011000011 "

#830
r-1.059839499427021 !
b1011110000101100 "

#840
r-0.9389441488183722 !
b1100001111101000 "

#850
r-0.8134743576135326 !
b1100101111110000 "

#860
r-0.6840414019008674 !
b1101010000111001 "

#870
r-0.5512758659039877 !
b1101110010111000 "

#880
r-0.4158245698394141 !
b1110010101100011 "

#890
r-0.2783474186741289 !
b1110111000110000 "

#900
r-0.1395141871355539 !
b1111011100010010 "

#910
r-1.256637056236299e-06 !
b0 "

#920
r0.1395116799836497 !
b100011101110 "

#930
r0.2783449298590224 !
b1000111010000 "

#940
r0.4158221114863601 !
b1101010011101 "

#950
r0.5512734499898326 !
b10001101001000 "

#960
r0.6840390401956998 !
b10101111000111 "

#970
r0.8134720616233405 !
b11010000010000 "

#980
r0.9389419297289867 !
b11110000011000 "

#990
r1.059837368049620 !
b100001111010100 "

#1000
r1.175569386279861 !
b100101100111101 "

#1010
r1.285574149772953 !
b101001001000111 "

#1020
r1.389315726485942 !
b101100011101011 "

#1030
r1.486288697986191 !
b101111100011111 "

#1040
r1.576020621798690 !
b110010011011110 "

#1050
r1.658074333097844 !
b110101000011110 "

#1060
r1.732050074530132 !
b110111011011010 "

#1070
r1.797587443791364 !
b111001100001100 "

#1080
r1.854367149470123 !
b111011010101110 "

#1090
r1.902112566603122 !
b111100110111100 "

#1100
r1.940591084363944 !
b111110000110011 "

#1110
r1.969615239319383 !
b111111000001110 "

#1120
r1.989043628732264 !
b111111101001100 "

#1130
r1.998781599461224 !
b111111111101100 "

#1140
r1.998781709101215 !
b111111111101100 "

#1150
r1.989043957118080 !
b111111101001100 "

#1160
r1.969615784851163 !
b111111000001110 "

#1170
r1.940591844383912 !
b111110000110011 "

#1180
r1.902113537408539 !
b111100110111100 "

#1190
r1.854368326331323 !
b111011010101110 "

#1200
r1.797588820974799 !
b111001100001100 "

#1210
r1.732051645326306 !
b110111011011010 "

#1220
r1.658076089853996 !
b110101000011110 "

#1230
r1.576022555956083 !
b110010011011110 "

#1240
r1.486290800121806 !
b101111100011111 "

#1250
r1.389317986358388 !
b101100011101011 "

#1260
r1.285576556372362 !
b101001001000111 "

#1270
r1.175571927881524 !
b100101100111101 "

#1280
r1.059840032271113 !
b100001111010100 "

#1290
r0.9389447035904916 !
b11110000011000 "

#1300
r0.8134749316108864 !
b11010000010000 "

#1310
r0.6840419923269988 !
b10101111000111 "

#1320
r0.5512764698824008 !
b10001101001000 "

#1330
r0.4158251844275871 !
b1101010011101 "

#1340
r0.2783480408778509 !
b1000111010000 "

#1350
r0.1395148139235115 !
b100011101110 "

#1360
r1.884955602117863e-06 !
b0 "

#1370
r-0.1395110531956197 !
b1111011100010010 "

#1380
r-0.2783443076551560 !
b1110111000110000 "

#1390
r-0.4158214968979713 !
b1110010101100011 "

#1400
r-0.5512728460111340 !
b1101110010111000 "

#1410
r-0.6840384497692141 !
b1101010000111001 "

#1420
r-0.8134714876255658 !
b1100101111110000 "

#1430
r-0.9389413749563821 !
b1100001111101000 "

#1440
r-1.059836835204982 !
b1011110000101100 "

#1450
r-1.175568877959153 !
b1011010011000011 "

#1460
r-1.285573668452664 !
b1010110110111001 "

#1470
r-1.389315274511014 !
b1010011100010101 "

#1480
r-1.486288277558601 !
b1010000011100001 "

#1490
r-1.576020234966719 !
b1001101100100010 "

#1500
r-1.658073981746098 !
b1001010111100010 "

#1510
r-1.732049760370362 !
b1001000100100110 "

#1520
r-1.797587168354123 !
b1000110011110100 "

#1530
r-1.854366914097315 !
b1000100101010010 "

#1540
r-1.902112372441459 !
b1000011001000100 "

#1550
r-1.940590932359362 !
b1000001111001101 "

#1560
r-1.969615130212434 !
b1000000111110010 "

#1570
r-1.989043563054506 !
b1000000010110100 "

#1580
r-1.998781577532632 !
b1000000000010100 "

#1590
r-1.998781731028623 !
b1000000000010100 "

#1600
r-1.989044022794661 !
b1000000010110100 "

#1610
r-1.969615893956947 !
b1000000111110010 "

#1620
r-1.940591996387347 !
b1000001111001101 "

#1630
r-1.902113731569078 !
b1000011001000100 "

#1640
r-1.854368561703038 !
b1000100101010010 "

#1650
r-1.797589096410982 !
b1000110011110100 "

#1660
r-1.732051959485059 !
b1001000100100110 "

#1670
r-1.658076441204770 !
b1001010111100010 "

#1680
r-1.576022942787132 !
b1001101100100010 "

#1690
r-1.486291220548530 !
b1010000011100001 "

#1700
r-1.389318438332510 !
b1010011100010101 "

#1710
r-1.285577037691909 !
b1010110110111001 "

#1720
r-1.175572436201557 !
b1011010011000011 "

#1730
r-1.059840565115148 !
b1011110000101100 "

#1740
r-0.9389452583625669 !
b1100001111101000 "

#1750
r-0.8134755056082086 !
b1100101111110000 "

#1760
r-0.6840425827531111 !
b1101010000111001 "

#1770
r-0.5512770738608072 !
b1101110010111000 "

#1780
r-0.4158257990157661 !
b1110010101100011 "

#1790
r-0.2783486630815912 !
b1110111000110000 "

#1800
r-0.1395154407114997 !
b1111011100010010 "

#1810
r-2.513274190631804e-06 !
b0 "

#1820
r0.1395104264075352 !
b100011101110 "

#1830
r0.2783436854512235 !
b1000111010000 "

#1840
r0.4158208823095051 !
b1101010011101 "

#1850
r0.5512722420323467 !
b10001101001000 "

#1860
r0.6840378593426292 !
b10101111000111 "

#1870
r0.8134709136276816 !
b11010000010000 "

#1880
r0.9389408201836580 !
b11110000011000 "

#1890
r1.059836302360214 !
b100001111010100 "

#1900
r1.175568369638308 !
b100101100111101 "

#1910
r1.285573187132228 !
b101001001000111 "

#1920
r1.389314822535933 !
b101100011101011 "

#1930
r1.486287857130851 !
b101111100011111 "

#1940
r1.576019848134581 !
b110010011011110 "

#1950
r1.658073630394179 !
b110101000011110 "

#1960
r1.732049446210412 !
b110111011011010 "

#1970
r1.797586892916699 !
b111001100001100 "

#1980
r1.854366678724319 !
b111011010101110 "

#1990
r1.902112178279605 !
b111100110111100 "

#2000
r1.940590780354587 !
b111110000110011 "

#2010
r1.969615021105289 !
b111111000001110 "

#2020
r1.989043497376551 !
b111111101001100 "

#2030
r1.998781555603843 !
b111111111101100 "

#2040
r1.998781752955834 !
b111111111101100 "

#2050
r1.989044088471046 !
b111111101001100 "

#2060
r1.969616003062536 !
b111111000001110 "

#2070
r1.940592148390590 !
b111110000110011 "

#2080
r1.902113925729430 !
b111100110111100 "

#2090
r1.854368797074569 !
b111011010101110 "

#2100
r1.797589371846987 !
b111001100001100 "

#2110
r1.732052273643641 !
b110111011011010 "

#2120
r1.658076792555380 !
b110101000011110 "

#2130
r1.576023329618027 !
b110010011011110 "

#2140
r1.486291640975107 !
b101111100011111 "

#2150
r1.389318890306494 !
b101100011101011 "

#2160
r1.285577519011330 !
b101001001000111 "

#2170
r1.175572944521474 !
b100101100111101 "

#2180
r1.059841097959079 !
b100001111010100 "

#2190
r0.9389458131345496 !
b11110000011000 "

#2200
r0.8134760796054504 !
b11010000010000 "

#2210
r0.6840431731791560 !
b10101111000111 "

#2220
r0.5512776778391592 !
b10001101001000 "

#2230
r0.4158264136039040 !
b1101010011101 "

#2240
r0.2783492852853039 !
b1000111010000 "

#2250
r0.1395160674994740 !
b100011101110 "

#2260
r3.141592779145497e-06 !
b0 "

#2270
r-0.1395097996194369 !
b1111011100010010 "

#2280
r-0.2783430632472634 !
b1110111000110000 "

#2290
r-0.4158202677209978 !
b1110010101100011 "

#2300
r-0.5512716380535051 !
b1101110010111000 "

#2310
r-0.6840372689159768 !
b1101010000111001 "

#2320
r-0.8134703396297172 !
b1100101111110000 "

#2330
r-0.9389402654108413 !
b1100001111101000 "

#2340
r-1.059835769515342 !
b1011110000101100 "

#2350
r-1.175567861317347 !
b1011010011000011 "

#2360
r-1.285572705811666 !
b1010110110111001 "

#2370
r-1.389314370560714 !
b1010011100010101 "

#2380
r-1.486287436702953 !
b1010000011100001 "

#2390
r-1.576019461302287 !
b1001101100100010 "

#2400
r-1.658073279042096 !
b1001010111100010 "

#2410
r-1.732049132050292 !
b1001000100100110 "

#2420
r-1.797586617479097 !
b1000110011110100 "

#2430
r-1.854366443351140 !
b1000100101010010 "

#2440
r-1.902111984117563 !
b1000011001000100 "

#2450
r-1.940590628349620 !
b1000001111001101 "

#2460
r-1.969614911997950 !
b1000000111110010 "

#2470
r-1.989043431698399 !
b1000000010110100 "

#2480
r-1.998781533674856 !
b1000000000010100 "

#2490
r-1.998781774882848 !
b1000000000010100 "

#2500
r-1.989044154147234 !
b1000000010110100 "

#2510
r-1.969616112167932 !
b1000000111110010 "

#2520
r-1.940592300393641 !
b1000001111001101 "

#2530
r-1.902114119889595 !
b1000011001000100 "

#2540
r-1.854369032445918 !
b1000100101010010 "

#2550
r-1.797589647282814 !
b1000110011110100 "

#2560
r-1.732052587802052 !
b1001000100100110 "

#2570
r-1.658077143905827 !
b1001010111100010 "

#2580
r-1.576023716448765 !
b1001101100100010 "

#2590
r-1.486292061401537 !
b1010000011100001 "

#2600
r-1.389319342280342 !
b1010011100010101 "

#2610
r-1.285578000330623 !
b1010110110111001 "

#2620
r-1.175573452841275 !
b1011010011000011 "

#2630
r-1.059841630802905 !
b1011110000101100 "

#2640
r-0.9389463679064396 !
b1100001111101000 "

#2650
r-0.8134766536026121 !
b1100101111110000 "

#2660
r-0.6840437636051333 !
b1101010000111001 "

#2670
r-0.5512782818174566 !
b1101110010111000 "

#2680
r-0.4158270281920008 !
b1110010101100011 "

#2690
r-0.2783499074889893 !
b1110111000110000 "

#2700
r-0.1395166942874346 !
b1111011100010010 "

#2710
r-3.769911367658880e-06 !
b0 "

#2720
r0.1395091728313249 !
b100011101110 "

#2730
r0.2783424410432759 !
b1000111010000 "

#2740
r0.4158196531324495 !
b1101010011101 "

#2750
r0.5512710340746090 !
b10001101001000 "

#2760
r0.6840366784892569 !
b10101111000111 "

#2770
r0.8134697656316724 !
b11010000010000 "

#2780
r0.9389397106379319 !
b11110000011000 "

#2790
r1.059835236670366 !
b100001111010100 "

#2800
r1.175567352996269 !
b100101100111100 "

#2810
r1.285572224490976 !
b101001001000111 "

#2820
r1.389313918585358 !
b101100011101011 "

#2830
r1.486287016274909 !
b101111100011111 "

#2840
r1.576019074469837 !
b110010011011101 "

#2850
r1.658072927689849 !
b110101000011110 "

#2860
r1.732048817890000 !
b110111011011010 "

#2870
r1.797586342041318 !
b111001100001100 "

#2880
r1.854366207977779 !
b111011010101110 "

#2890
r1.902111789955334 !
b111100110111100 "

#2900
r1.940590476344462 !
b111110000110011 "

#2910
r1.969614802890417 !
b111111000001110 "

#2920
r1.989043366020051 !
b111111101001100 "

#2930
r1.998781511745672 !
b111111111101100 "

#2940
r1.998781796809665 !
b111111111101100 "

#2950
r1.989044219823226 !
b111111101001101 "

#2960
r1.969616221273133 !
b111111000001110 "

#2970
r1.940592452396501 !
b111110000110011 "

#2980
r1.902114314049571 !
b111100110111100 "

#2990
r1.854369267817084 !
b111011010101110 "

#3000
r1.797589922718464 !
b111001100001100 "

#3010
r1.732052901960292 !
b110111011011010 "

#3020
r1.658077495256110 !
b110101000011110 "

#3030
r1.576024103279348 !
b110010011011110 "

#3040
r1.486292481827821 !
b101111100011111 "

#3050
r1.389319794254052 !
b101100011101011 "

#3060
r1.285578481649790 !
b101001001000111 "

#3070
r1.175573961160960 !
b100101100111101 "

#3080
r1.059842163646626 !
b100001111010100 "

#3090
r0.9389469226782370 !
b11110000011000 "

#3100
r0.8134772275996934 !
b11010000010000 "

#3110
r0.6840443540310430 !
b10101111000111 "

#3120
r0.5512788857956998 !
b10001101001000 "

#3130
r0.4158276427800567 !
b1101010011101 "

#3140
r0.2783505296926471 !
b1000111010000 "

#3150
r0.1395173210753814 !
b100011101110 "

#3160
r4.398229956171891e-06 !
b0 "

#3170
r-0.1395085460431990 !
b1111011100010010 "

#3180
r-0.2783418188392609 !
b1110111000110000 "

#3190
r-0.4158190385438602 !
b1110010101100011 "

#3200
r-0.5512704300956586 !
b1101110010111000 "

#3210
r-0.6840360880624694 !
b1101010000111001 "

#3220
r-0.8134691916335473 !
b1100101111110000 "

#3230
r-0.9389391558649298 !
b1100001111101000 "

#3240
r-1.059834703825284 !
b1011110000101100 "

#3250
r-1.175566844675076 !
b1011010011000100 "

#3260
r-1.285571743170160 !
b1010110110111001 "

#3270
r-1.389313466609866 !
b1010011100010101 "

#3280
r-1.486286595846719 !
b1010000011100001 "

#3290
r-1.576018687637232 !
b1001101100100011 "

#3300
r-1.658072576337438 !
b1001010111100010 "

#3310
r-1.732048503729538 !
b1001000100100110 "

#3320
r-1.797586066603362 !
b1000110011110100 "

#3330
r-1.854365972604234 !
b1000100101010010 "

#3340
r-1.902111595792917 !
b1000011001000100 "

#3350
r-1.940590324339112 !
b1000001111001101 "

#3360
r-1.969614693782689 !
b1000000111110010 "

#3370
r-1.989043300341507 !
b1000000010110100 "

#3380
r-1.998781489816291 !
b1000000000010100 "

#3390
r-1.998781818736284 !
b1000000000010100 "

#3400
r-1.989044285499022 !
b1000000010110011 "

#3410
r-1.969616330378139 !
b1000000111110010 "

#3420
r-1.940592604399169 !
b1000001111001101 "

#3430
r-1.902114508209360 !
b1000011001000100 "

#3440
r-1.854369503188066 !
b1000100101010010 "

#3450
r-1.797590198153937 !
b1000110011110100 "

#3460
r-1.732053216118361 !
b1001000100100110 "

#3470
r-1.658077846606229 !
b1001010111100010 "

#3480
r-1.576024490109776 !
b1001101100100010 "

#3490
r-1.486292902253958 !
b1010000011100001 "

#3500
r-1.389320246227625 !
b1010011100010101 "

#3510
r-1.285578962968830 !
b1010110110111001 "

#3520
r-1.175574469480529 !
b1011010011000011 "

#3530
r-1.059842696490243 !
b1011110000101100 "

#3540
r-0.9389474774499417 !
b1100001111101000 "

#3550
r-0.8134778015966945 !
b1100101111110000 "

#3560
r-0.6840449444568854 !
b1101010000111001 "

#3570
r-0.5512794897738886 !
b1101110010111000 "

#3580
r-0.4158282573680715 !
b1110010101100011 "

#3590
r-0.2783511518962775 !
b1110111000101111 "

#3600
r-0.1395179478633145 !
b1111011100010010 "

#3610
r-5.026548544684468e-06 !
b0 "

#3620
r0.1395079192550595 !
b100011101110 "

#3630
r0.2783411966352184 !
b1000111010000 "

#3640
r0.4158184239552298 !
b1101010011101 "

#3650
r0.5512698261166536 !
b10001101001000 "

#3660
r0.6840354976356144 !
b10101111000111 "

#3670
r0.8134686176353420 !
b11010000010000 "

#3680
r0.9389386010918351 !
b11110000011000 "

#3690
r1.059834170980098 !
b100001111010100 "

#3700
r1.175566336353767 !
b100101100111100 "

#3710
r1.285571261849217 !
b101001001000111 "

#3720
r1.389313014634236 !
b101100011101011 "

#3730
r1.486286175418381 !
b101111100011111 "

#3740
r1.576018300804471 !
b110010011011101 "

#3750
r1.658072224984864 !
b110101000011110 "

#3760
r1.732048189568905 !
b110111011011010 "

#3770
r1.797585791165228 !
b111001100001100 "

#3780
r1.854365737230506 !
b111011010101110 "

#3790
r1.902111401630312 !
b111100110111100 "

#3800
r1.940590172333571 !
b111110000110011 "

#3810
r1.969614584674767 !
b111111000001110 "

#3820
r1.989043234662766 !
b111111101001100 "

#3830
r1.998781467886712 !
b111111111101100 "

#3840
r1.998781840662706 !
b111111111101100 "

#3850
r1.989044351174622 !
b111111101001101 "

#3860
r1.969616439482951 !
b111111000001110 "

#3870
r1.940592756401646 !
b111110000110011 "

#3880
r1.902114702368961 !
b111100110111100 "

#3890
r1.854369738558866 !
b111011010101110 "

#3900
r1.797590473589232 !
b111001100001100 "

#3910
r1.732053530276259 !
b110111011011010 "

#3920
r1.658078197956185 !
b110101000011110 "

#3930
r1.576024876940048 !
b110010011011110 "

#3940
r1.486293322679949 !
b101111100011111 "

#3950
r1.389320698201061 !
b101100011101011 "

#3960
r1.285579444287743 !
b101001001000111 "

#3970
r1.175574977799982 !
b100101100111101 "

#3980
r1.059843229333755 !
b100001111010100 "

#3990
r0.9389480322215537 !
b11110000011000 "

#4000
r0.8134783755936152 !
b11010000010000 "

#4010
r0.6840455348826601 !
b10101111000111 "

#4020
r0.5512800937520229 !
b10001101001000 "

#4030
r0.4158288719560452 !
b1101010011101 "

#4040
r0.2783517740998804 !
b1000111010001 "

#4050
r0.1395185746512337 !
b100011101110 "

#4060
r5.654867133196549e-06 !
b0 "

#4070
r-0.1395072924669061 !
b1111011100010010 "

#4080
r-0.2783405744311485 !
b1110111000110000 "

#4090
r-0.4158178093665584 !
b1110010101100011 "

#4100
r-0.5512692221375943 !
b1101110010111000 "

#4110
r-0.6840349072086919 !
b1101010000111001 "

#4120
r-0.8134680436370563 !
b1100101111110000 "

#4130
r-0.9389380463186477 !
b1100001111101000 "

#4140
r-1.059833638134808 !
b1011110000101100 "

#4150
r-1.175565828032341 !
b1011010011000100 "

#4160
r-1.285570780528147 !
b1010110110111001 "

#4170
r-1.389312562658469 !
b1010011100010110 "

#4180
r-1.486285754989897 !
b1010000011100001 "

#4190
r-1.576017913971555 !
b1001101100100011 "

#4200
r-1.658071873632127 !
b1001010111100010 "

#4210
r-1.732047875408100 !
b1001000100100110 "

#4220
r-1.797585515726916 !
b1000110011110100 "

#4230
r-1.854365501856595 !
b1000100101010010 "

#4240
r-1.902111207467519 !
b1000011001000100 "

#4250
r-1.940590020327838 !
b1000001111001101 "

#4260
r-1.969614475566650 !
b1000000111110010 "

#4270
r-1.989043168983830 !
b1000000010110100 "

#4280
r-1.998781445956937 !
b1000000000010100 "

#4290
r-1.998781862588931 !
b1000000000010100 "

#4300
r-1.989044416850025 !
b1000000010110011 "

#4310
r-1.969616548587568 !
b1000000111110010 "

#4320
r-1.940592908403932 !
b1000001111001101 "

#4330
r-1.902114896528375 !
b1000011001000100 "

#4340
r-1.854369973929482 !
b1000100101010010 "

#4350
r-1.797590749024350 !
b1000110011110100 "

#4360
r-1.732053844433986 !
b1001000100100110 "

#4370
r-1.658078549305977 !
b1001010111100010 "

#4380
r-1.576025263770164 !
b1001101100100010 "

#4390
r-1.486293743105792 !
b1010000011100001 "

#4400
r-1.389321150174360 !
b1010011100010101 "

#4410
r-1.285579925606529 !
b1010110110111001 "

#4420
r-1.175575486119319 !
b1011010011000011 "

#4430
r-1.059843762177163 !
b1011110000101100 "

#4440
r-0.9389485869930729 !
b1100001111101000 "

#4450
r-0.8134789495904556 !
b1100101111110000 "

#4460
r-0.6840461253083674 !
b1101010000111001 "

#4470
r-0.5512806977301029 !
b1101110010111000 "

#4480
r-0.4158294865439779 !
b1110010101100011 "

#4490
r-0.2783523963034559 !
b1110111000101111 "

#4500
r-0.1395192014391393 !
b1111011100010010 "

#4510
r-6.283185721708072e-06 !
b0 "

#4520
r0.1395066656787390 !
b100011101110 "

#4530
r0.2783399522270511 !
b1000111010000 "

#4540
r0.4158171947778459 !
b1101010011101 "

#4550
r0.5512686181584807 !
b10001101001000 "

#4560
r0.6840343167817019 !
b10101111000111 "

#4570
r0.8134674696386904 !
b11010000010000 "

#4580
r0.9389374915453678 !
b11110000011000 "

#4590
r1.059833105289413 !
b100001111010100 "

#4600
r1.175565319710800 !
b100101100111100 "

#4610
r1.285570299206956 !
b101001001000111 "

#4620
r1.389312110682575 !
b101100011101010 "

#4630
r1.486285334561281 !
b101111100011111 "

#4640
r1.576017527138501 !
b110010011011101 "

#4650
r1.658071522279245 !
b110101000011110 "

#4660
r1.732047561247146 !
b110111011011010 "

#4670
r1.797585240288450 !
b111001100001100 "

#4680
r1.854365266482523 !
b111011010101110 "

#4690
r1.902111013304559 !
b111100110111100 "

#4700
r1.940589868321931 !
b111110000110011 "

#4710
r1.969614366458353 !
b111111000001110 "

#4720
r1.989043103304706 !
b111111101001100 "

#4730
r1.998781424026967 !
b111111111101100 "

#4740
r1.998781884514955 !
b111111111101100 "

#4750
r1.989044482525220 !
b111111101001101 "

#4760
r1.969616657691972 !
b111111000001110 "

#4770
r1.940593060405996 !
b111110000110011 "

#4780
r1.902115090687561 !
b111100110111100 "

#4790
r1.854370209299865 !
b111011010101110 "

#4800
r1.797591024459228 !
b111001100001100 "

#4810
r1.732054158591468 !
b110111011011010 "

#4820
r1.658078900655518 !
b110101000011110 "

#4830
r1.576025650600025 !
b110010011011110 "

#4840
r1.486294163531375 !
b101111100011111 "

#4850
r1.389321602147394 !
b101100011101011 "

#4860
r1.285580406925046 !
b101001001000111 "

#4870
r1.175575994438385 !
b100101100111101 "

#4880
r1.059844295020297 !
b100001111010100 "

#4890
r0.9389491417643177 !
b11110000011000 "

#4900
r0.8134795235870211 !
b11010000010000 "

#4910
r0.6840467157338002 !
b10101111000111 "

#4920
r0.5512813017079098 !
b10001101001000 "

#4930
r0.4158301011316403 !
b1101010011101 "

#4940
r0.2783530185067646 !
b1000111010001 "

#4950
r0.1395198282267829 !
b100011101110 "

#4960
r6.911504054423589e-06 !
b0 "

#4970
r-0.1395060388908203 !
b1111011100010010 "

#4980
r-0.2783393300231936 !
b1110111000110000 "

#4990
r-0.4158165801893635 !
b1110010101100011 "

#5000
r-0.5512680141795857 !
b1101110010111000 "

#5010
r-0.6840337263549182 !
b1101010000111001 "

#5020
r-0.8134668956405168 !
b1100101111110000 "

#5030
r-0.9389369367722648 !
b1100001111101000 "

#5040
r-1.059832572444178 !
b1011110000101100 "

#5050
r-1.175564811389401 !
b1011010011000100 "

#5060
r-1.285569817885877 !
b1010110110111001 "

#5070
r-1.389311658706764 !
b1010011100010110 "

#5080
r-1.486284914132717 !
b1010000011100001 "

#5090
r-1.576017140305470 !
b1001101100100011 "

#5100
r-1.658071170926359 !
b1001010111100010 "

#5110
r-1.732047247086160 !
b1001000100100110 "

#5120
r-1.797584964849924 !
b1000110011110100 "

#5130
r-1.854365031108365 !
b1000100101010010 "

#5140
r-1.902110819141490 !
b1000011001000100 "

#5150
r-1.940589716315892 !
b1000001111001101 "

#5160
r-1.969614257349903 !
b1000000111110010 "

#5170
r-1.989043037625410 !
b1000000010110100 "

#5180
r-1.998781402096808 !
b1000000000010100 "

#5190
r-1.998781906440775 !
b1000000000010100 "

#5200
r-1.989044548200197 !
b1000000010110011 "

#5210
r-1.969616766796145 !
b1000000111110010 "

#5220
r-1.940593212407821 !
b1000001111001101 "

#5230
r-1.902115284846500 !
b1000011001000100 "

#5240
r-1.854370444669996 !
b1000100101010010 "

#5250
r-1.797591299893851 !
b1000110011110100 "

#5260
r-1.732054472748694 !
b1001000100100110 "

#5270
r-1.658079252004804 !
b1001010111100010 "

#5280
r-1.576026037429633 !
b1001101100100010 "

#5290
r-1.486294583956711 !
b1010000011100001 "

#5300
r-1.389322054120189 !
b1010011100010101 "

#5310
r-1.285580888243334 !
b1010110110111001 "

#5320
r-1.175576502757231 !
b1011010011000011 "

#5330
r-1.059844827863225 !
b1011110000101100 "

#5340
r-0.9389496965353693 !
b1100001111101000 "

#5350
r-0.8134800975834089 !
b1100101111110000 "

#5360
r-0.6840473061590719 !
b1101010000111001 "

#5370
r-0.5512819056855736 !
b1101110010111000 "

#5380
r-0.4158307157191781 !
b1110010101100011 "

#5390
r-0.2783536407099685 !
b1110111000101111 "

#5400
r-0.1395204550143419 !
b1111011100010010 "

#5410
r-7.539822323189579e-06 !
b0 "

#5420
r0.1395054121029446 !
b100011101110 "

#5430
r0.2783387078193579 !
b1000111010000 "

#5440
r0.4158159656008817 !
b1101010011101 "

#5450
r0.5512674102006706 !
b10001101001000 "

#5460
r0.6840331359280937 !
b10101111000111 "

#5470
r0.8134663216422825 !
b11010000010000 "

#5480
r0.9389363819990817 !
b11110000011000 "

#5490
r1.059832039598845 !
b100001111010100 "

#5500
r1.175564303067886 !
b100101100111100 "

#5510
r1.285569336564672 !
b101001001000111 "

#5520
r1.389311206730815 !
b101100011101010 "

#5530
r1.486284493704007 !
b101111100011111 "

#5540
r1.576016753472284 !
b110010011011101 "

#5550
r1.658070819573309 !
b110101000011110 "

#5560
r1.732046932925003 !
b110111011011010 "

#5570
r1.797584689411220 !
b111001100001100 "

#5580
r1.854364795734025 !
b111011010101110 "

#5590
r1.902110624978233 !
b111100110111100 "

#5600
r1.940589564309662 !
b111110000110011 "

#5610
r1.969614148241259 !
b111111000001110 "

#5620
r1.989042971945918 !
b111111101001100 "

#5630
r1.998781380166451 !
b111111111101100 "

#5640
r1.998781928366397 !
b111111111101100 "

#5650
r1.989044613874978 !
b111111101001101 "

#5660
r1.969616875900124 !
b111111000001110 "

#5670
r1.940593364409454 !
b111110000110011 "

#5680
r1.902115479005251 !
b111100110111100 "

#5690
r1.854370680039943 !
b111011010101110 "

#5700
r1.797591575328296 !
b111001100001100 "

#5710
r1.732054786905748 !
b110111011011010 "

#5720
r1.658079603353926 !
b110101000011110 "

#5730
r1.576026424259086 !
b110010011011110 "

#5740
r1.486295004381901 !
b101111100011111 "

#5750
r1.389322506092846 !
b101100011101011 "

#5760
r1.285581369561494 !
b101001001000111 "

#5770
r1.175577011075961 !
b100101100111101 "

#5780
r1.059845360706047 !
b100001111010101 "

#5790
r0.9389502513063284 !
b11110000011000 "

#5800
r0.8134806715797165 !
b11010000010000 "

#5810
r0.6840478965842762 !
b10101111000111 "

#5820
r0.5512825096631829 !
b10001101001000 "

#5830
r0.4158313303066749 !
b1101010011101 "

#5840
r0.2783542629131449 !
b1000111010001 "

#5850
r0.1395210818018871 !
b100011101110 "

#5860
r8.168140591954823e-06 !
b0 "

#5870
r-0.1395047853150552 !
b1111011100010010 "

#5880
r-0.2783380856154947 !
b1110111000110000 "

#5890
r-0.4158153510123588 !
b1110010101100011 "

#5900
r-0.5512668062217010 !
b1101110010111000 "

#5910
r-0.6840325455012015 !
b1101010000111001 "

